{
    "search": {
        "font_size": 16
    },
    "tab": {
        "font_size": 16
    },
    "body": {
        "title_font_size": 16,
        "author_font_size": 14,
        "description_font_size": 14,
        "timestamp_font_size": 10,
        "reaction_font_size": 14,
        "progress_font_size": 14,
        "replies_font_size": 14,
        "embedded_load_font_size": 14
    },
    "input": {
        "font_size": 16
    },
    "video": {
        "max_height": 2160
    },
    "local_manga": {
        "directory": "",
        "sort_by_name": false,
        "sort_chapters_by_name": false
    },
    "local_anime": {
        "directory": "",
        "sort_by_name": false,
        "auto_group_episodes": false
    },
    "use_system_fonts": false,
    "use_system_mpv_config": false,
    "theme": "default",
    "scale": 1.0,
    "font_scale": 1.0,
    "spacing_scale": 1.0
}